%YAML 1.1
%TAG !u! tag:unity3d.com,2011:
--- !u!114 &11400000
MonoBehaviour:
  m_ObjectHideFlags: 0
  m_PrefabParentObject: {fileID: 0}
  m_PrefabInternal: {fileID: 0}
  m_GameObject: {fileID: 0}
  m_Enabled: 1
  m_EditorHideFlags: 0
  m_Script: {fileID: 11500000, guid: 7d241765e0fd55a48a822a3ae0cf48ad, type: 3}
  m_Name: GreenBlock
  m_EditorClassIdentifier: 
  color: 2
  material: {fileID: 2100000, guid: 2a44e143a1bfd5b49803383c3e2f71d9, type: 2}
